[gd_scene load_steps=7 format=2]

[ext_resource path="res://code/grid_spawner.gd" type="Script" id=1]
[ext_resource path="res://scns/jelly_blue.tscn" type="PackedScene" id=2]
[ext_resource path="res://scns/jelly_yellow.tscn" type="PackedScene" id=3]
[ext_resource path="res://fnt/november.ttf" type="DynamicFontData" id=4]
[ext_resource path="res://scns/jelly_pink.tscn" type="PackedScene" id=5]

[sub_resource type="DynamicFont" id=1]
size = 45
outline_size = 1
outline_color = Color( 0, 0, 0, 1 )
font_data = ExtResource( 4 )

[node name="Grid_Spawner" type="Node"]
script = ExtResource( 1 )
jelly_blue = ExtResource( 2 )
jelly_pink = ExtResource( 5 )
jelly_yellow = ExtResource( 3 )

[node name="Label" type="Label" parent="."]
anchor_left = 1.0
anchor_right = 1.0
margin_left = 1.0
margin_top = 81.0
margin_right = 240.0
margin_bottom = 135.0
custom_fonts/font = SubResource( 1 )
custom_colors/font_color = Color( 0.682353, 0.901961, 0.921569, 1 )
__meta__ = {
"_edit_use_anchors_": false
}

[node name="t_hint" type="Timer" parent="."]
wait_time = 2.0

[node name="t_difficulty" type="Timer" parent="."]
wait_time = 2.0
one_shot = true

[node name="t_grid_passed_1sec" type="Timer" parent="."]
wait_time = 0.5
one_shot = true
[connection signal="timeout" from="t_grid_passed_1sec" to="." method="_on_t_grid_passed_1sec_timeout"]
