[gd_scene load_steps=5 format=2]

[ext_resource path="res://sprt/anm/Enemies/bluejelly/bluejelly0.png" type="Texture" id=1]
[ext_resource path="res://sprt/anm/Enemies/bluejelly/bluejelly1.png" type="Texture" id=2]
[ext_resource path="res://code/Octopus.gd" type="Script" id=8]

[sub_resource type="SpriteFrames" id=1]
animations = [ {
"frames": [ ExtResource( 1 ), ExtResource( 2 ) ],
"loop": true,
"name": "bluejelly",
"speed": 1.5
} ]

[node name="blue_jelly" type="Area2D"]
z_index = 7
collision_layer = 2
collision_mask = 3
script = ExtResource( 8 )
__meta__ = {
"_edit_group_": true
}

[node name="Animation" type="AnimatedSprite" parent="."]
rotation = 1.5708
frames = SubResource( 1 )
animation = "bluejelly"
frame = 1
playing = true

[node name="collision_shape" type="CollisionPolygon2D" parent="."]
rotation = 1.5708
polygon = PoolVector2Array( -13.5624, -11.7611, -5.50938, -14.4746, 2.5874, -13.5993, 10.159, -13.3367, 13.645, -11.9641, 16.0726, -9.79369, 16.2179, -6.55449, 16.3491, -3.62034, 15.2943, -1.87057, 12.7034, 1.85442, -3.8653, 1.96738, -11.9101, 2.0122, -13.8891, -0.0319436, -15.0204, -1.89847, -15.9253, -3.87812, -15.4881, -8.04091 )

[node name="VisibilityNotifier2D" type="VisibilityNotifier2D" parent="."]

[node name="wave_end_timer" type="Timer" parent="."]
wait_time = 2.0
one_shot = true
[connection signal="body_entered" from="." to="." method="_on_jelly_body_entered"]
[connection signal="tree_entered" from="." to="." method="_on_Octopus_tree_entered"]
[connection signal="tree_exited" from="." to="." method="_on_Octopus_tree_exited"]
[connection signal="screen_exited" from="VisibilityNotifier2D" to="." method="_on_VisibilityNotifier2D_screen_exited"]
[connection signal="timeout" from="wave_end_timer" to="." method="_on_wave_end_timer_timeout"]
