[gd_scene load_steps=4 format=2]

[ext_resource path="res://code/chaos_spawn.gd" type="Script" id=1]
[ext_resource path="res://scns/Octopus.tscn" type="PackedScene" id=2]
[ext_resource path="res://scns/monsterPath.tscn" type="PackedScene" id=3]

[node name="Monsters_Spwner" type="Node"]
script = ExtResource( 1 )
monster = ExtResource( 2 )
mon_minspeed = 211

[node name="t_monspawn" type="Timer" parent="."]
wait_time = 0.7

[node name="t_endwave" type="Timer" parent="."]
wait_time = 10.0
one_shot = true

[node name="monsterPath" parent="." instance=ExtResource( 3 )]

[node name="Position2D" type="Position2D" parent="."]
position = Vector2( 440.821, -56.3113 )
[connection signal="timeout" from="t_monspawn" to="." method="_on_t_monspawn_timeout"]
[connection signal="timeout" from="t_endwave" to="." method="_on_t_endwave_timeout"]
