[gd_scene load_steps=2 format=2]

[ext_resource path="res://code/swipe_detector.gd" type="Script" id=1]

[node name="swipe_detector" type="Node"]
script = ExtResource( 1 )

[node name="Timer" type="Timer" parent="."]
wait_time = 0.15
[connection signal="timeout" from="Timer" to="." method="_on_Timer_timeout"]
